[{
    "name": "Extension: Dummy element template 1",
    "id": "ext_abasWorkflowModel_ServiceTask1",
    "appliesTo": [
      "bpmn:ServiceTask"
    ],
    "properties": [
      {
        "label": "ERP Config",
        "description": "Enter the abas ERP configuration this task should use.",
        "type": "abasTemplateSelectClients",
        "binding": {
          "type": "camunda:inputParameter",
          "name": "abas_config",
          "scriptFormat": "freemarker"
        },
        "constraints": {
          "notEmpty": true
        }
      }
    ],
    "entriesVisible": {
      "_all": true,
      "delegate": false,
      "implementation": false
      }
  },
  {
    "name": "Extension: Dummy element template 2",
    "id": "ext_abasWorkflowModel_ServiceTask2",
    "appliesTo": [
      "bpmn:ServiceTask"
    ],
    "properties": [
      {
        "label": "Mandatory test field",
        "description": "You have to enter a field here (stored as extension_MandantoryField)",
        "type": "String",
        "value": "",
        "binding": {
          "type": "camunda:inputParameter",
          "name": "extension_MandantoryField"
        },
        "constraints": {
          "notEmpty": true
        }
      }
    ],
    "entriesVisible": {
      "_all": true,
      "delegate": false,
      "implementation": false
      }
  }
]  